{
  "project_info": {
    "project_number": "658988812220",
    "firebase_url": "https://spatial-cat-289509.firebaseio.com",
    "project_id": "spatial-cat-289509",
    "storage_bucket": "spatial-cat-289509.appspot.com"
  },
  "client": [
    {
      "client_info": {
        "mobilesdk_app_id": "1:658988812220:android:3316e46fd44eb14bef8db9",
        "android_client_info": {
          "package_name": "com.example.appx0d"
        }
      },
      "oauth_client": [
        {
          "client_id": "658988812220-9os2397t1m674db304af64ih58oan0ge.apps.googleusercontent.com",
          "client_type": 3
        }
      ],
      "api_key": [
        {
          "current_key": "AIzaSyCuZ5CqGiJ4Slc_Z3-ypzw1CA7VVidQRT4"
        }
      ],
      "services": {
        "appinvite_service": {
          "other_platform_oauth_client": [
            {
              "client_id": "658988812220-9os2397t1m674db304af64ih58oan0ge.apps.googleusercontent.com",
              "client_type": 3
            }
          ]
        }
      }
    },
    {
      "client_info": {
        "mobilesdk_app_id": "1:658988812220:android:80cf6f0ef5f6e810ef8db9",
        "android_client_info": {
          "package_name": "com.example.appx0e"
        }
      },
      "oauth_client": [
        {
          "client_id": "658988812220-9os2397t1m674db304af64ih58oan0ge.apps.googleusercontent.com",
          "client_type": 3
        }
      ],
      "api_key": [
        {
          "current_key": "AIzaSyCuZ5CqGiJ4Slc_Z3-ypzw1CA7VVidQRT4"
        }
      ],
      "services": {
        "appinvite_service": {
          "other_platform_oauth_client": [
            {
              "client_id": "658988812220-9os2397t1m674db304af64ih58oan0ge.apps.googleusercontent.com",
              "client_type": 3
            }
          ]
        }
      }
    },
    {
      "client_info": {
        "mobilesdk_app_id": "1:658988812220:android:b1e27ec917ccf513ef8db9",
        "android_client_info": {
          "package_name": "com.example.appx0f"
        }
      },
      "oauth_client": [
        {
          "client_id": "658988812220-9os2397t1m674db304af64ih58oan0ge.apps.googleusercontent.com",
          "client_type": 3
        }
      ],
      "api_key": [
        {
          "current_key": "AIzaSyCuZ5CqGiJ4Slc_Z3-ypzw1CA7VVidQRT4"
        }
      ],
      "services": {
        "appinvite_service": {
          "other_platform_oauth_client": [
            {
              "client_id": "658988812220-9os2397t1m674db304af64ih58oan0ge.apps.googleusercontent.com",
              "client_type": 3
            }
          ]
        }
      }
    }
  ],
  "configuration_version": "1"
}